…
``` r
rest_inspec <-
  rest_inspec %>%
  filter(
    str_detect(grade, "[ABC]"),
    boro != "Missing"
  ) %>%
  mutate(boro = str_to_title(boro))
rest_inspec
```

    ## # A tibble: 188,195 × 18
    ##    action        boro   building  camis critical_flag cuisine_descrip… dba      
    ##    <chr>         <chr>  <chr>     <int> <chr>         <chr>            <chr>    
    ##  1 Violations w… Manha… 1271     5.00e7 Critical      American         THE HARO…
    ##  2 Violations w… Manha… 37       4.12e7 Not Critical  Korean           SHILLA K…
    ##  3 Violations w… Manha… 53       4.04e7 Not Critical  Korean           HAN BAT …
    ##  4 Violations w… Manha… 287      4.16e7 Not Critical  American         BRGR     
    ##  5 Violations w… Manha… 800      4.11e7 Not Critical  Pizza            WALDY'S …
    ##  6 Violations w… Manha… 121      5.00e7 Not Critical  CafÃ©/Coffee/Tea LUNA     
    ##  7 Violations w… Manha… 124      4.10e7 Critical      American         JOHNY'S …
    ##  8 Violations w… Manha… 138      4.11e7 Critical      American         AROME CA…
    ##  9 Violations w… Manha… 839      5.00e7 Not Critical  American         L'AMICO/…
    ## 10 Violations w… Manha… 35       4.13e7 Critical      Korean           MADANGSUI
    ## # … with 188,185 more rows, and 11 more variables: inspection_date <dttm>,
    ## #   inspection_type <chr>, phone <chr>, record_date <dttm>, score <int>,
    ## #   street <chr>, violation_code <chr>, violation_description <chr>,
    ## #   zipcode <int>, grade <chr>, grade_date <dttm>
…
